{"artists": {"href": "https://api.spotify.com/v1/search?query=Coldplay&type=artist&locale=*&offset=0&limit=1", "items": [{"external_urls": {"spotify": "https://open.spotify.com/artist/4gzpq5DPGxSnKTe4SA8HAU"}, "followers": {"href": null, "total": 54194182}, "genres": ["permanent wave", "pop"], "href": "https://api.spotify.com/v1/artists/4gzpq5DPGxSnKTe4SA8HAU", "id": "4gzpq5DPGxSnKTe4SA8HAU", "images": [{"height": 640, "url": "https://i.scdn.co/image/ab6761610000e5eb1ba8fc5f5c73e7e9313cc6eb", "width": 640}, {"height": 320, "url": "https://i.scdn.co/image/ab676161000051741ba8fc5f5c73e7e9313cc6eb", "width": 320}, {"height": 160, "url": "https://i.scdn.co/image/ab6761610000f1781ba8fc5f5c73e7e9313cc6eb", "width": 160}], "name": "Coldplay", "popularity": 92, "type": "artist", "uri": "spotify:artist:4gzpq5DPGxSnKTe4SA8HAU"}], "limit": 1, "next": "https://api.spotify.com/v1/search?query=Coldplay&type=artist&locale=*&offset=1&limit=1", "offset": 0, "previous": null, "total": 819}}